…
Save your outputs (plots and cleaned data) there.

Only ever use relative paths, not absolute paths.


10.


```r
as_tibble(iris)
```

```
## # A tibble: 150 × 5
##    Sepal.Length Sepal.Width Petal.Length Petal.Width Species
##           <dbl>       <dbl>        <dbl>       <dbl>  <fctr>
## 1           5.1         3.5          1.4         0.2  setosa
## 2           4.9         3.0          1.4         0.2  setosa
## 3           4.7         3.2          1.3         0.2  setosa
## 4           4.6         3.1          1.5         0.2  setosa
## 5           5.0         3.6          1.4         0.2  setosa
## 6           5.4         3.9          1.7         0.4  setosa
## 7           4.6         3.4          1.4         0.3  setosa
## 8           5.0         3.4          1.5         0.2  setosa
## 9           4.4         2.9          1.4         0.2  setosa
## 10          4.9         3.1          1.5         0.1  setosa
## # ... with 140 more rows
```
…
```r
tibble(
  a = lubridate::now() + runif(1e3) * 86400,
  b = lubridate::today() + runif(1e3) * 30,
  c = 1:1e3,
  d = runif(1e3),
  e = sample(letters, 1e3, replace = TRUE)
)
```

```
## # A tibble: 1,000 × 5
##                      a          b     c          d     e
##                 <dttm>     <date> <int>      <dbl> <chr>
## 1  2017-05-31 04:06:07 2017-06-12     1 0.84058227     g
## 2  2017-05-31 10:31:55 2017-06-07     2 0.84725235     g
## 3  2017-05-31 23:06:46 2017-06-19     3 0.94424038     x
## 4  2017-05-31 14:16:29 2017-06-24     4 0.09468555     j
## 5  2017-05-31 12:50:11 2017-06-18     5 0.60696977     l
## 6  2017-05-31 22:09:51 2017-06-02     6 0.70508167     a
## 7  2017-05-31 16:44:23 2017-06-10     7 0.61368366     u
## 8  2017-05-31 09:49:07 2017-06-24     8 0.92625105     f
## 9  2017-05-31 03:53:31 2017-06-25     9 0.69877973     h
## 10 2017-05-31 22:26:54 2017-06-06    10 0.28098892     i
## # ... with 990 more rows
```
…
