…
```r
who
```

```
## # A tibble: 7,240 × 60
##        country  iso2  iso3  year new_sp_m014 new_sp_m1524 new_sp_m2534
##          <chr> <chr> <chr> <int>       <int>        <int>        <int>
## 1  Afghanistan    AF   AFG  1980          NA           NA           NA
## 2  Afghanistan    AF   AFG  1981          NA           NA           NA
## 3  Afghanistan    AF   AFG  1982          NA           NA           NA
## 4  Afghanistan    AF   AFG  1983          NA           NA           NA
## 5  Afghanistan    AF   AFG  1984          NA           NA           NA
## 6  Afghanistan    AF   AFG  1985          NA           NA           NA
## 7  Afghanistan    AF   AFG  1986          NA           NA           NA
## 8  Afghanistan    AF   AFG  1987          NA           NA           NA
## 9  Afghanistan    AF   AFG  1988          NA           NA           NA
## 10 Afghanistan    AF   AFG  1989          NA           NA           NA
## # ... with 7,230 more rows, and 53 more variables: new_sp_m3544 <int>,
## #   new_sp_m4554 <int>, new_sp_m5564 <int>, new_sp_m65 <int>,
## #   new_sp_f014 <int>, new_sp_f1524 <int>, new_sp_f2534 <int>,
## #   new_sp_f3544 <int>, new_sp_f4554 <int>, new_sp_f5564 <int>,
## #   new_sp_f65 <int>, new_sn_m014 <int>, new_sn_m1524 <int>,
## #   new_sn_m2534 <int>, new_sn_m3544 <int>, new_sn_m4554 <int>,
## #   new_sn_m5564 <int>, new_sn_m65 <int>, new_sn_f014 <int>,
## #   new_sn_f1524 <int>, new_sn_f2534 <int>, new_sn_f3544 <int>,
## #   new_sn_f4554 <int>, new_sn_f5564 <int>, new_sn_f65 <int>,
…
```r
who1 <- who %>% 
  gather(new_sp_m014:newrel_f65, key = "key", value = "cases", na.rm = TRUE)
who1
```

```
## # A tibble: 76,046 × 6
##        country  iso2  iso3  year         key cases
## *        <chr> <chr> <chr> <int>       <chr> <int>
## 1  Afghanistan    AF   AFG  1997 new_sp_m014     0
## 2  Afghanistan    AF   AFG  1998 new_sp_m014    30
## 3  Afghanistan    AF   AFG  1999 new_sp_m014     8
## 4  Afghanistan    AF   AFG  2000 new_sp_m014    52
## 5  Afghanistan    AF   AFG  2001 new_sp_m014   129
## 6  Afghanistan    AF   AFG  2002 new_sp_m014    90
## 7  Afghanistan    AF   AFG  2003 new_sp_m014   127
## 8  Afghanistan    AF   AFG  2004 new_sp_m014   139
## 9  Afghanistan    AF   AFG  2005 new_sp_m014   151
## 10 Afghanistan    AF   AFG  2006 new_sp_m014   193
## # ... with 76,036 more rows
```


```r
who1 %>% 
  count(key)
```

```
## # A tibble: 56 × 2
##             key     n
##           <chr> <int>
## 1   new_ep_f014  1032
## 2  new_ep_f1524  1021
## 3  new_ep_f2534  1021
## 4  new_ep_f3544  1021
## 5  new_ep_f4554  1017
## 6  new_ep_f5564  1017
## 7    new_ep_f65  1014
## 8   new_ep_m014  1038
## 9  new_ep_m1524  1026
## 10 new_ep_m2534  1020
## # ... with 46 more rows
```


```r
who2 <- who1 %>% 
  mutate(key = stringr::str_replace(key, "newrel", "new_rel"))
who2
```

```
## # A tibble: 76,046 × 6
##        country  iso2  iso3  year         key cases
##          <chr> <chr> <chr> <int>       <chr> <int>
## 1  Afghanistan    AF   AFG  1997 new_sp_m014     0
## 2  Afghanistan    AF   AFG  1998 new_sp_m014    30
## 3  Afghanistan    AF   AFG  1999 new_sp_m014     8
## 4  Afghanistan    AF   AFG  2000 new_sp_m014    52
## 5  Afghanistan    AF   AFG  2001 new_sp_m014   129
## 6  Afghanistan    AF   AFG  2002 new_sp_m014    90
## 7  Afghanistan    AF   AFG  2003 new_sp_m014   127
## 8  Afghanistan    AF   AFG  2004 new_sp_m014   139
## 9  Afghanistan    AF   AFG  2005 new_sp_m014   151
## 10 Afghanistan    AF   AFG  2006 new_sp_m014   193
## # ... with 76,036 more rows
```


```r
who3 <- who2 %>% 
  separate(key, c("new", "type", "sexage"), sep = "_")
who3
```

```
## # A tibble: 76,046 × 8
##        country  iso2  iso3  year   new  type sexage cases
## *        <chr> <chr> <chr> <int> <chr> <chr>  <chr> <int>
## 1  Afghanistan    AF   AFG  1997   new    sp   m014     0
## 2  Afghanistan    AF   AFG  1998   new    sp   m014    30
## 3  Afghanistan    AF   AFG  1999   new    sp   m014     8
## 4  Afghanistan    AF   AFG  2000   new    sp   m014    52
## 5  Afghanistan    AF   AFG  2001   new    sp   m014   129
## 6  Afghanistan    AF   AFG  2002   new    sp   m014    90
## 7  Afghanistan    AF   AFG  2003   new    sp   m014   127
## 8  Afghanistan    AF   AFG  2004   new    sp   m014   139
## 9  Afghanistan    AF   AFG  2005   new    sp   m014   151
## 10 Afghanistan    AF   AFG  2006   new    sp   m014   193
## # ... with 76,036 more rows
```
…
```r
#all are new.
```


```r
who4 <- who3 %>% 
  select(-new, -iso2, -iso3)
who4
```

```
## # A tibble: 76,046 × 5
##        country  year  type sexage cases
## *        <chr> <int> <chr>  <chr> <int>
## 1  Afghanistan  1997    sp   m014     0
## 2  Afghanistan  1998    sp   m014    30
## 3  Afghanistan  1999    sp   m014     8
## 4  Afghanistan  2000    sp   m014    52
## 5  Afghanistan  2001    sp   m014   129
## 6  Afghanistan  2002    sp   m014    90
## 7  Afghanistan  2003    sp   m014   127
## 8  Afghanistan  2004    sp   m014   139
## 9  Afghanistan  2005    sp   m014   151
## 10 Afghanistan  2006    sp   m014   193
## # ... with 76,036 more rows
```


```r
who5 <- who4 %>% 
  separate(sexage, c("sex", "age"), sep = 1)
who5
```

```
## # A tibble: 76,046 × 6
##        country  year  type   sex   age cases
## *        <chr> <int> <chr> <chr> <chr> <int>
## 1  Afghanistan  1997    sp     m   014     0
## 2  Afghanistan  1998    sp     m   014    30
## 3  Afghanistan  1999    sp     m   014     8
## 4  Afghanistan  2000    sp     m   014    52
## 5  Afghanistan  2001    sp     m   014   129
## 6  Afghanistan  2002    sp     m   014    90
## 7  Afghanistan  2003    sp     m   014   127
## 8  Afghanistan  2004    sp     m   014   139
## 9  Afghanistan  2005    sp     m   014   151
## 10 Afghanistan  2006    sp     m   014   193
## # ... with 76,036 more rows
```


```r
who %>%
  gather(code, value, new_sp_m014:newrel_f65, na.rm = TRUE) %>% 
  mutate(code = stringr::str_replace(code, "newrel", "new_rel")) %>%
  separate(code, c("new", "var", "sexage")) %>% 
  select(-new, -iso2, -iso3) %>% 
  separate(sexage, c("sex", "age"), sep = 1)
```

```
## # A tibble: 76,046 × 6
##        country  year   var   sex   age value
## *        <chr> <int> <chr> <chr> <chr> <int>
## 1  Afghanistan  1997    sp     m   014     0
## 2  Afghanistan  1998    sp     m   014    30
## 3  Afghanistan  1999    sp     m   014     8
## 4  Afghanistan  2000    sp     m   014    52
## 5  Afghanistan  2001    sp     m   014   129
## 6  Afghanistan  2002    sp     m   014    90
## 7  Afghanistan  2003    sp     m   014   127
## 8  Afghanistan  2004    sp     m   014   139
## 9  Afghanistan  2005    sp     m   014   151
## 10 Afghanistan  2006    sp     m   014   193
## # ... with 76,036 more rows
```
…
```
## Warning: Too few values at 2580 locations: 73467, 73468, 73469, 73470,
## 73471, 73472, 73473, 73474, 73475, 73476, 73477, 73478, 73479, 73480,
## 73481, 73482, 73483, 73484, 73485, 73486, ...
```

```
## # A tibble: 76,046 × 6
##        country  year   var   sex   age value
## *        <chr> <int> <chr> <chr> <chr> <int>
## 1  Afghanistan  1997    sp     m   014     0
## 2  Afghanistan  1998    sp     m   014    30
## 3  Afghanistan  1999    sp     m   014     8
## 4  Afghanistan  2000    sp     m   014    52
## 5  Afghanistan  2001    sp     m   014   129
## 6  Afghanistan  2002    sp     m   014    90
## 7  Afghanistan  2003    sp     m   014   127
## 8  Afghanistan  2004    sp     m   014   139
## 9  Afghanistan  2005    sp     m   014   151
## 10 Afghanistan  2006    sp     m   014   193
## # ... with 76,036 more rows
```
…
```
## Warning: Too few values at 2580 locations: 73467, 73468, 73469, 73470,
## 73471, 73472, 73473, 73474, 73475, 73476, 73477, 73478, 73479, 73480,
## 73481, 73482, 73483, 73484, 73485, 73486, ...
```

```
## # A tibble: 2,580 × 8
##                country  iso2  iso3  year    new   var sexage value
##                  <chr> <chr> <chr> <int>  <chr> <chr>  <chr> <int>
## 1          Afghanistan    AF   AFG  2013 newrel  m014   <NA>  1705
## 2              Albania    AL   ALB  2013 newrel  m014   <NA>    14
## 3              Algeria    DZ   DZA  2013 newrel  m014   <NA>    25
## 4              Andorra    AD   AND  2013 newrel  m014   <NA>     0
## 5               Angola    AO   AGO  2013 newrel  m014   <NA>   486
## 6             Anguilla    AI   AIA  2013 newrel  m014   <NA>     0
## 7  Antigua and Barbuda    AG   ATG  2013 newrel  m014   <NA>     1
## 8            Argentina    AR   ARG  2013 newrel  m014   <NA>   462
## 9              Armenia    AM   ARM  2013 newrel  m014   <NA>    25
## 10           Australia    AU   AUS  2013 newrel  m014   <NA>    28
## # ... with 2,570 more rows
```


3.


```r
select(who3, country, iso2, iso3)
```

```
## # A tibble: 76,046 × 3
##        country  iso2  iso3
## *        <chr> <chr> <chr>
## 1  Afghanistan    AF   AFG
## 2  Afghanistan    AF   AFG
## 3  Afghanistan    AF   AFG
## 4  Afghanistan    AF   AFG
## 5  Afghanistan    AF   AFG
## 6  Afghanistan    AF   AFG
## 7  Afghanistan    AF   AFG
## 8  Afghanistan    AF   AFG
## 9  Afghanistan    AF   AFG
## 10 Afghanistan    AF   AFG
## # ... with 76,036 more rows
```
…
